…
The data set also contained a small proportion of recalls from countries
other than the United States. For this analysis I was only interested in
recalls originating within the United States.

``` r
df %>% count(country) %>% arrange(desc(n))
```

    ## # A tibble: 32 × 2
    ##    country                     n
    ##    <chr>                   <int>
    ##  1 United States           27166
    ##  2 Canada                    180
    ##  3 Israel                     86
    ##  4 France                     13
    ##  5 Taiwan                     13
    ##  6 Mexico                     11
    ##  7 India                      10
    ##  8 Chile                       8
    ##  9 Korea (the Republic of)     8
    ## 10 Spain                       6
    ## # ℹ 22 more rows
…
When I checked the results for NA values, I noticed that there were a
few recalls from Puerto Rico.

``` r
df %>% select(state, region) %>% filter(is.na(region))
```

    ## # A tibble: 22 × 2
    ##    state region
    ##    <chr> <chr> 
    ##  1 PR    <NA>  
    ##  2 PR    <NA>  
    ##  3 PR    <NA>  
    ##  4 PR    <NA>  
    ##  5 PR    <NA>  
    ##  6 PR    <NA>  
    ##  7 PR    <NA>  
    ##  8 PR    <NA>  
    ##  9 PR    <NA>  
    ## 10 PR    <NA>  
    ## # ℹ 12 more rows
…
``` r
df1 <- df %>% unite("year_month", c(recall_initiation_year, recall_initiation_month), sep = " ") %>% 
  group_by(recalling_firm, year_month) %>% count(recalling_firm)
df1
```

    ## # A tibble: 2,131 × 3
    ## # Groups:   recalling_firm, year_month [2,131]
    ##    recalling_firm                                 year_month     n
    ##    <chr>                                          <chr>      <int>
    ##  1 20-100 Delicious Seasoning LLC                 2023 Mar       1
    ##  2 4 Earth Farms formerly Mcl Fresh Inc           2023 Feb       1
    ##  3 4 Earth Farms formerly Mcl Fresh Inc           2024 Nov       9
    ##  4 4 J's Treats, LLC dba Bruttles Gourmet Candies 2023 Feb       1
    ##  5 5000 Years Foods, Inc.                         2021 Jul      10
    ##  6 6174 Industries, LLC                           2022 May       1
    ##  7 8TH AVE PHARMACY                               2024 Jan       1
    ##  8 A & C Best Food Trading                        2022 Mar       3
    ##  9 A & E Corrales LLC                             2022 Feb       1
    ## 10 A C Calderoni & Co. Inc.                       2022 Nov       1
    ## # ℹ 2,121 more rows
…
It seems *Wilcox* is a manufacturer that creates ice cream products.
They had to recall 53 of their products in 2023. This likely contributed
to the spike in Listeria recalls that occured in that year.

``` r
df %>% filter(str_detect(product_description, "Wilcox") == TRUE,
              recall_initiation_year == 2023) %>%
  select(recalling_firm, product_description)
```

    ## # A tibble: 53 × 2
    ##    recalling_firm   product_description                                         
    ##    <chr>            <chr>                                                       
    ##  1 WILCOX ICE CREAM Wilcox Premium Strawberry in 1.5QT, Quart, Pint, 3 Gallon, …
    ##  2 WILCOX ICE CREAM Wilcox Premium Peanut Butter Fudge Swirl in 1.5QT, Quart, P…
    ##  3 WILCOX ICE CREAM Wilcox Yogurt - Maple Cream;  Pint (UPC 04372600698)        
    ##  4 WILCOX ICE CREAM Wilcox Yogurt - Black Raspberry;  Pint (UPC 04372600695)    
    ##  5 WILCOX ICE CREAM Wilcox Premium Chocolate; 4 oz Cup; UPC 04372600402;  Wilco…
    ##  6 WILCOX ICE CREAM Wilcox SUPER PREMIUM Salted Caramel Brownie; 1.5 QT (UPC 04…
    ##  7 WILCOX ICE CREAM Wilcox Premium Sea Salt Caramel Turtle in 1.5QT, Quart, and…
    ##  8 WILCOX ICE CREAM Wilcox Premium Peppermint in 1.5QT, Quart, Pint, and 3 Gall…
    ##  9 WILCOX ICE CREAM Wilcox SUPER PREMIUM Super Java; 1.5 QT (UPC 04372601516) a…
    ## 10 WILCOX ICE CREAM Wilcox Premium Coffee; 4 oz Cup; UPC 04372600403;  Wilcox P…
    ## # ℹ 43 more rows
…
